[gd_scene load_steps=6 format=2]

[ext_resource path="res://scripts/Anticorps.gd" type="Script" id=1]

[sub_resource type="PhysicsMaterial" id=4]
friction = 0.0
bounce = 1.0

[sub_resource type="SphereMesh" id=1]

[sub_resource type="SpatialMaterial" id=2]
albedo_color = Color( 0.254902, 0.729412, 0.870588, 1 )

[sub_resource type="ConvexPolygonShape" id=3]
points = PoolVector3Array( -0.998867, -0.0477684, 0, -0.994174, -0.0477684, 0.0977748, -0.998867, 0.0475723, 0, -0.994174, -0.0477684, -0.0979704, -0.989872, -0.142326, 0, -0.979703, -0.0477684, 0.194767, -0.994174, 0.0475723, 0.0977748, -0.985179, -0.142326, 0.0969926, -0.970904, -0.142326, 0.193007, -0.994174, 0.0475723, -0.0979704, -0.989872, 0.14213, 0, -0.979703, -0.0477684, -0.194963, -0.970904, -0.142326, -0.193203, -0.985179, -0.142326, -0.0971881, -0.971882, -0.235905, 0, -0.956042, -0.0477684, 0.289805, -0.979703, 0.0475723, 0.194767, -0.970904, 0.14213, 0.193007, -0.985179, 0.14213, 0.0969926, -0.967188, -0.235905, 0.0952327, -0.953304, -0.235905, 0.189488, -0.947242, -0.142326, 0.287262, -0.985179, 0.14213, -0.0971881, -0.970904, 0.14213, -0.193203, -0.979703, 0.0475723, -0.194963, -0.971882, 0.235708, 0, -0.956042, -0.0477684, -0.29, -0.947242, -0.142326, -0.287458, -0.953304, -0.235905, -0.189683, -0.967188, -0.235905, -0.0954282, -0.940594, -0.327134, -0.0926905, -0.945091, -0.327134, 0, -0.940594, -0.327134, 0.092495, -0.922994, -0.0477684, 0.382104, -0.956042, 0.0475723, 0.289805, -0.914585, -0.142326, 0.37878, -0.947242, 0.14213, 0.287262, -0.953304, 0.235708, 0.189488, -0.967188, 0.235708, 0.0952327, -0.930034, -0.235905, 0.281982, -0.926905, -0.327134, 0.184208, -0.904417, -0.327134, 0.274161, -0.967188, 0.235708, -0.0954282, -0.953304, 0.235708, -0.189683, -0.956042, 0.0475723, -0.29, -0.947242, 0.14213, -0.287458, -0.940594, 0.326938, 0.092495, -0.945091, 0.326938, 0, -0.940594, 0.326938, -0.0926905, -0.922994, -0.0477684, -0.382299, -0.914585, -0.142326, -0.378975, -0.930034, -0.235905, -0.282178, -0.904417, -0.327134, -0.274356, -0.926905, -0.327134, -0.184403, -0.892293, -0.415427, -0.177559, -0.905395, -0.415427, -0.0891706, -0.909697, -0.415427, 0, -0.905395, -0.415427, 0.0889751, -0.892293, -0.415427, 0.177363, -0.880951, -0.0477684, 0.470688, -0.922994, 0.0475723, 0.382104, -0.873129, -0.142326, 0.466581, -0.914585, 0.14213, 0.37878, -0.897964, -0.235905, 0.37174, -0.930034, 0.235708, 0.281982, -0.904417, 0.326938, 0.274161, -0.926905, 0.326938, 0.184208, -0.873129, -0.327134, 0.361571, -0.870587, -0.415427, 0.263992, -0.926905, 0.326938, -0.184403, -0.904417, 0.326938, -0.274356, -0.930034, 0.235708, -0.282178, -0.914585, 0.14213, -0.378975, -0.922994, 0.0475723, -0.382299, -0.892293, 0.415231, 0.177363, -0.905395, 0.415231, 0.0889751, -0.909697, 0.415231, 0, -0.905395, 0.415231, -0.0891706, -0.892293, 0.415231, -0.177559, -0.880951, -0.0477684, -0.470883, -0.873129, -0.142326, -0.466777, -0.897964, -0.235905, -0.371935, -0.873129, -0.327134, -0.361767, -0.870587, -0.415427, -0.264188, -0.849467, -0.5, -0.168955, -0.861983, -0.5, -0.0850641, -0.866089, -0.5, 0, -0.861983, -0.5, 0.0848685, -0.849467, -0.5, 0.168759, -0.830695, -0.0477684, 0.554774, -0.880951, 0.0475723, 0.470688, -0.873129, 0.14213, 0.466581, -0.823068, -0.142326, 0.549885, -0.857094, -0.235905, 0.457977, -0.808206, -0.235905, 0.539717, -0.897964, 0.235708, 0.37174, -0.833432, -0.327134, 0.445462, -0.873129, 0.326938, 0.361571, -0.870587, 0.415231, 0.263992, -0.840472, -0.415427, 0.348078, -0.828739, -0.5, 0.251281, -0.800189, -0.5, 0.331261, -0.870587, 0.415231, -0.264188, -0.873129, 0.326938, -0.361767, -0.897964, 0.235708, -0.371935, -0.873129, 0.14213, -0.466777, -0.880951, 0.0475723, -0.470883, -0.849467, 0.5, 0.168759, -0.861983, 0.5, 0.0848685, -0.866089, 0.5, 0, -0.861983, 0.5, -0.0850641, -0.849467, 0.5, -0.168955, -0.830695, -0.0477684, -0.55497, -0.823068, -0.142326, -0.550081, -0.808206, -0.235905, -0.539912, -0.857094, -0.235905, -0.458173, -0.833432, -0.327134, -0.445658, -0.840472, -0.415427, -0.348274, -0.800189, -0.5, -0.331457, -0.828739, -0.5, -0.251477, -0.779656, -0.58007, -0.236615, -0.799016, -0.58007, -0.158982, -0.810749, -0.58007, -0.0799798, -0.81466, -0.58007, 0, -0.810749, -0.58007, 0.0797842, -0.799016, -0.58007, 0.158786, -0.779656, -0.58007, 0.236419, -0.772225, -0.0477684, 0.633581, -0.830695, 0.0475723, 0.554774, -0.765186, -0.142326, 0.62791, -0.823068, 0.14213, 0.549885, -0.808206, 0.235708, 0.539717, -0.857094, 0.235708, 0.457977, -0.751302, -0.235905, 0.616372, -0.785914, -0.327134, 0.524855, -0.833432, 0.326938, 0.445462, -0.80234, -0.415427, 0.428645, -0.840472, 0.415231, 0.348078, -0.800189, 0.5, 0.331261, -0.828739, 0.5, 0.251281, -0.763817, -0.5, 0.408112, -0.75267, -0.58007, 0.311706, -0.828739, 0.5, -0.251477, -0.800189, 0.5, -0.331457, -0.840472, 0.415231, -0.348274, -0.833432, 0.326938, -0.445658, -0.857094, 0.235708, -0.458173, -0.808206, 0.235708, -0.539912, -0.823068, 0.14213, -0.550081, -0.830695, 0.0475723, -0.55497, -0.779656, 0.579875, 0.236419, -0.799016, 0.579875, 0.158786, -0.810749, 0.579875, 0.0797842, -0.81466, 0.579875, 0, -0.810749, 0.579875, -0.0799798, -0.799016, 0.579875, -0.158982, -0.779656, 0.579875, -0.236615, -0.772225, -0.0477684, -0.633776, -0.765186, -0.142326, -0.628105, -0.751302, -0.235905, -0.616568, -0.785914, -0.327134, -0.525051, -0.80234, -0.415427, -0.42884, -0.763817, -0.5, -0.408308, -0.75267, -0.58007, -0.311902, -0.723338, -0.655051, -0.219407, -0.741328, -0.655051, -0.147444, -0.752279, -0.655051, -0.0741133, -0.755799, -0.655051, 0, -0.752279, -0.655051, 0.0739178, -0.741328, -0.655051, 0.147249, -0.723338, -0.655051, 0.219211, -0.706325, -0.0477684, 0.70613, -0.772225, 0.0475723, 0.633581, -0.700068, -0.142326, 0.699872, -0.765186, 0.14213, 0.62791, -0.687357, -0.235905, 0.687161, -0.751302, 0.235708, 0.616372, -0.785914, 0.326938, 0.524855, -0.730573, -0.327134, 0.59936, -0.756386, -0.415427, 0.5053, -0.80234, 0.415231, 0.428645, -0.720209, -0.5, 0.481052, -0.763817, 0.5, 0.408112, -0.75267, 0.579875, 0.311706, -0.718449, -0.58007, 0.383864, -0.698308, -0.655051, 0.289022, -0.666629, -0.655051, 0.356096, -0.75267, 0.579875, -0.311902, -0.763817, 0.5, -0.408308, -0.80234, 0.415231, -0.42884, -0.785914, 0.326938, -0.525051, -0.751302, 0.235708, -0.616568, -0.765186, 0.14213, -0.628105, -0.772225, 0.0475723, -0.633776, -0.723338, 0.654855, 0.219211, -0.741328, 0.654855, 0.147249, -0.752279, 0.654855, 0.0739178, -0.755799, 0.654855, 0, -0.752279, 0.654855, -0.0741133, -0.741328, 0.654855, -0.147444, -0.723338, 0.654855, -0.219407, -0.706325, -0.0477684, -0.706325, -0.700068, -0.142326, -0.700068, -0.687357, -0.235905, -0.687357, -0.730573, -0.327134, -0.599555, -0.756386, -0.415427, -0.505496, -0.720209, -0.5, -0.481248, -0.718449, -0.58007, -0.384059, -0.666629, -0.655051, -0.356291, -0.698308, -0.655051, -0.289218, -0.637687, -0.723767, -0.264188, -0.660371, -0.723767, -0.200438, -0.676993, -0.723767, -0.134734, -0.68677, -0.723767, -0.0676602, -0.690095, -0.723767, 0, -0.68677, -0.723767, 0.0674646, -0.676993, -0.723767, 0.134538, -0.660371, -0.723767, 0.200243, -0.637687, -0.723767, 0.263992, -0.633776, -0.0477684, 0.77203, -0.706325, 0.0475723, 0.70613, -0.700068, 0.14213, 0.699872, -0.628105, -0.142326, 0.76499, -0.687357, 0.235708, 0.687161, -0.616568, -0.235905, 0.751106, -0.668388, -0.327134, 0.668193, -0.599555, -0.327134, 0.730378, -0.730573, 0.326938, 0.59936, -0.756386, 0.415231, 0.5053, -0.703196, -0.415427, 0.576871, -0.643358, -0.415427, 0.643163, -0.669562, -0.5, 0.549299, -0.720209, 0.5, 0.481052, -0.677384, -0.58007, 0.452502, -0.629865, -0.58007, 0.516642, -0.718449, 0.579875, 0.383864, -0.666629, 0.654855, 0.356096, -0.698308, 0.654855, 0.289022, -0.628496, -0.655051, 0.419845, -0.608746, -0.723767, 0.325199, -0.698308, 0.654855, -0.289218, -0.666629, 0.654855, -0.356291, -0.718449, 0.579875, -0.384059, -0.720209, 0.5, -0.481248, -0.756386, 0.415231, -0.505496, -0.730573, 0.326938, -0.599555, -0.687357, 0.235708, -0.687357, -0.700068, 0.14213, -0.700068, -0.706325, 0.0475723, -0.706325, -0.637687, 0.723571, 0.263992, -0.660371, 0.723571, 0.200243, -0.676993, 0.723571, 0.134538, -0.68677, 0.723571, 0.0674646, -0.690095, 0.723571, 0, -0.68677, 0.723571, -0.0676602, -0.676993, 0.723571, -0.134734, -0.660371, 0.723571, -0.200438, -0.637687, 0.723571, -0.264188, -0.633776, -0.0477684, -0.772225, -0.628105, -0.142326, -0.765186, -0.616568, -0.235905, -0.751302, -0.599555, -0.327134, -0.730573, -0.668388, -0.327134, -0.668388, -0.643358, -0.415427, -0.643358, -0.703196, -0.415427, -0.577067, -0.669562, -0.5, -0.549494, -0.629865, -0.58007, -0.516838, -0.677384, -0.58007, -0.452697, -0.628496, -0.655051, -0.420041, -0.608746, -0.723767, -0.325395, -0.5712, -0.786218, -0.236615, -0.591733, -0.786218, -0.179515, -0.606399, -0.786218, -0.120654, -0.615199, -0.786218, -0.0606204, -0.618328, -0.786218, 0, -0.615199, -0.786218, 0.0604249, -0.606399, -0.786218, 0.120459, -0.591733, -0.786218, 0.179319, -0.5712, -0.786218, 0.236419, -0.55497, -0.0477684, 0.830499, -0.633776, 0.0475723, 0.77203, -0.628105, 0.14213, 0.76499, -0.550081, -0.142326, 0.822873, -0.539912, -0.235905, 0.808011, -0.616568, 0.235708, 0.751106, -0.599555, 0.326938, 0.730378, -0.668388, 0.326938, 0.668193, -0.525051, -0.327134, 0.785718, -0.577067, -0.415427, 0.703001, -0.505496, -0.415427, 0.75619, -0.643358, 0.415231, 0.643163, -0.703196, 0.415231, 0.576871, -0.669562, 0.5, 0.549299, -0.612461, -0.5, 0.612266, -0.549494, -0.5, 0.669366, -0.629865, 0.579875, 0.516642, -0.677384, 0.579875, 0.452502, -0.576089, -0.58007, 0.575894, -0.584302, -0.655051, 0.479292, -0.534437, -0.655051, 0.534241, -0.628496, 0.654855, 0.419845, -0.608746, 0.723571, 0.325199, -0.573938, -0.723767, 0.383277, -0.545192, -0.786218, 0.291369, -0.5141, -0.786218, 0.343385, -0.608746, 0.723571, -0.325395, -0.628496, 0.654855, -0.420041, -0.677384, 0.579875, -0.452697, -0.629865, 0.579875, -0.516838, -0.669562, 0.5, -0.549494, -0.703196, 0.415231, -0.577067, -0.643358, 0.415231, -0.643358, -0.668388, 0.326938, -0.668388, -0.616568, 0.235708, -0.751302, -0.628105, 0.14213, -0.765186, -0.599555, 0.326938, -0.730573, -0.633776, 0.0475723, -0.772225, -0.5712, 0.786022, 0.236419, -0.591733, 0.786022, 0.179319, -0.606399, 0.786022, 0.120459, -0.615199, 0.786022, 0.0604249, -0.618328, 0.786022, 0, -0.615199, 0.786022, -0.0606204, -0.606399, 0.786022, -0.120654, -0.591733, 0.786022, -0.179515, -0.5712, 0.786022, -0.236615, -0.55497, -0.0477684, -0.830695, -0.550081, -0.142326, -0.823068, -0.539912, -0.235905, -0.808206, -0.525051, -0.327134, -0.785914, -0.505496, -0.415427, -0.756386, -0.577067, -0.415427, -0.703196, -0.549494, -0.5, -0.669562, -0.612461, -0.5, -0.612461, -0.576089, -0.58007, -0.576089, -0.534437, -0.655051, -0.534437, -0.584302, -0.655051, -0.479488, -0.573938, -0.723767, -0.383473, -0.5141, -0.786218, -0.343581, -0.545192, -0.786218, -0.291564, -0.499629, -0.841425, -0.207087, -0.517424, -0.841425, -0.157026, -0.530331, -0.841425, -0.105597, -0.538152, -0.841425, -0.052994, -0.540695, -0.841425, 0, -0.538152, -0.841425, 0.0527984, -0.530331, -0.841425, 0.105401, -0.517424, -0.841425, 0.156831, -0.499629, -0.841425, 0.206891, -0.470883, -0.0477684, 0.880755, -0.55497, 0.0475723, 0.830499, -0.466777, -0.142326, 0.872933, -0.550081, 0.14213, 0.822873, -0.539912, 0.235708, 0.808011, -0.458173, -0.235905, 0.856898, -0.445658, -0.327134, 0.833237, -0.525051, 0.326938, 0.785718, -0.505496, 0.415231, 0.75619, -0.577067, 0.415231, 0.703001, -0.42884, -0.415427, 0.802144, -0.481248, -0.5, 0.720014, -0.549494, 0.5, 0.669366, -0.612461, 0.5, 0.612266, -0.516838, -0.58007, 0.62967, -0.576089, 0.579875, 0.575894, -0.534437, 0.654855, 0.534241, -0.584302, 0.654855, 0.479292, -0.533459, -0.723767, 0.43764, -0.488092, -0.723767, 0.487896, -0.479488, -0.655051, 0.584107, -0.573938, 0.723571, 0.383277, -0.5141, 0.786022, 0.343385, -0.545192, 0.786022, 0.291369, -0.477923, -0.786218, 0.392077, -0.476945, -0.841425, 0.254801, -0.449569, -0.841425, 0.300169, -0.418085, -0.841425, 0.342798, -0.545192, 0.786022, -0.291564, -0.5141, 0.786022, -0.343581, -0.573938, 0.723571, -0.383473, -0.584302, 0.654855, -0.479488, -0.534437, 0.654855, -0.534437, -0.576089, 0.579875, -0.576089, -0.612461, 0.5, -0.612461, -0.549494, 0.5, -0.669562, -0.577067, 0.415231, -0.703196, -0.539912, 0.235708, -0.808206, -0.525051, 0.326938, -0.785914, -0.550081, 0.14213, -0.823068, -0.55497, 0.0475723, -0.830695, -0.505496, 0.415231, -0.756386, -0.499629, 0.841229, 0.206891, -0.517424, 0.841229, 0.156831, -0.530331, 0.841229, 0.105401, -0.538152, 0.841229, 0.0527984, -0.540695, 0.841229, 0, -0.538152, 0.841229, -0.052994, -0.530331, 0.841229, -0.105597, -0.517424, 0.841229, -0.157026, -0.499629, 0.841229, -0.207087, -0.470883, -0.0477684, -0.880951, -0.466777, -0.142326, -0.873129, -0.458173, -0.235905, -0.857094, -0.445658, -0.327134, -0.833432, -0.42884, -0.415427, -0.80234, -0.481248, -0.5, -0.720209, -0.516838, -0.58007, -0.629865, -0.479488, -0.655051, -0.584302, -0.488092, -0.723767, -0.488092, -0.533459, -0.723767, -0.437836, -0.477923, -0.786218, -0.392272, -0.418085, -0.841425, -0.342994, -0.449569, -0.841425, -0.300364, -0.476945, -0.841425, -0.254997, -0.404201, -0.888998, -0.216082, -0.423365, -0.888998, -0.175408, -0.438618, -0.888998, -0.133169, -0.449569, -0.888998, -0.0895617, -0.456022, -0.888998, -0.0449764, -0.458368, -0.888998, 0, -0.456022, -0.888998, 0.0447809, -0.449569, -0.888998, 0.0893661, -0.438618, -0.888998, 0.132974, -0.423365, -0.888998, 0.175212, -0.404201, -0.888998, 0.215887, -0.382299, -0.0477684, 0.922799, -0.470883, 0.0475723, 0.880755, -0.466777, 0.14213, 0.872933, -0.378975, -0.142326, 0.91439, -0.371935, -0.235905, 0.897768, -0.458173, 0.235708, 0.856898, -0.445658, 0.326938, 0.833237, -0.361767, -0.327134, 0.872933, -0.348274, -0.415427, 0.840277, -0.42884, 0.415231, 0.802144, -0.481248, 0.5, 0.720014, -0.408308, -0.5, 0.763621, -0.452697, -0.58007, 0.677188, -0.384059, -0.58007, 0.718254, -0.516838, 0.579875, 0.62967, -0.420041, -0.655051, 0.628301, -0.479488, 0.654855, 0.584107, -0.488092, 0.723571, 0.487896, -0.533459, 0.723571, 0.43764, -0.437836, -0.723767, 0.533264, -0.437249, -0.786218, 0.437053, -0.392272, -0.786218, 0.477728, -0.383473, -0.723767, 0.573743, -0.477923, 0.786022, 0.392077, -0.418085, 0.841229, 0.342798, -0.449569, 0.841229, 0.300169, -0.476945, 0.841229, 0.254801, -0.381126, -0.888998, 0.25441, -0.382299, -0.841425, 0.382104, -0.354336, -0.888998, 0.290587, -0.476945, 0.841229, -0.254997, -0.449569, 0.841229, -0.300364, -0.418085, 0.841229, -0.342994, -0.477923, 0.786022, -0.392272, -0.533459, 0.723571, -0.437836, -0.488092, 0.723571, -0.488092, -0.479488, 0.654855, -0.584302, -0.516838, 0.579875, -0.629865, -0.481248, 0.5, -0.720209, -0.458173, 0.235708, -0.857094, -0.466777, 0.14213, -0.873129, -0.445658, 0.326938, -0.833432, -0.42884, 0.415231, -0.80234, -0.470883, 0.0475723, -0.880951, -0.404201, 0.888802, 0.215887, -0.423365, 0.888802, 0.175212, -0.438618, 0.888802, 0.132974, -0.449569, 0.888802, 0.0893661, -0.456022, 0.888802, 0.0447809, -0.458368, 0.888802, 0, -0.456022, 0.888802, -0.0449764, -0.449569, 0.888802, -0.0895617, -0.438618, 0.888802, -0.133169, -0.423365, 0.888802, -0.175408, -0.404201, 0.888802, -0.216082, -0.382299, -0.0477684, -0.922994, -0.378975, -0.142326, -0.914585, -0.371935, -0.235905, -0.897964, -0.361767, -0.327134, -0.873129, -0.348274, -0.415427, -0.840472, -0.408308, -0.5, -0.763817, -0.384059, -0.58007, -0.718449, -0.452697, -0.58007, -0.677384, -0.420041, -0.655051, -0.628496, -0.383473, -0.723767, -0.573938, -0.437836, -0.723767, -0.533459, -0.392272, -0.786218, -0.477923, -0.437249, -0.786218, -0.437249, -0.382299, -0.841425, -0.382299, -0.354336, -0.888998, -0.290782, -0.381126, -0.888998, -0.254606, -0.327937, -0.928543, -0.175212, -0.343385, -0.928543, -0.14236, -0.355705, -0.928543, -0.107943, -0.3647, -0.928543, -0.0725489, -0.36998, -0.928543, -0.0365677, -0.37174, -0.928543, 0, -0.36998, -0.928543, 0.0363722, -0.3647, -0.928543, 0.0723533, -0.355705, -0.928543, 0.107748, -0.343385, -0.928543, 0.142165, -0.327937, -0.928543, 0.175017, -0.29, -0.0477684, 0.955846, -0.382299, 0.0475723, 0.922799, -0.378975, 0.14213, 0.91439, -0.371935, 0.235708, 0.897768, -0.287458, -0.142326, 0.947047, -0.282178, -0.235905, 0.929838, -0.274356, -0.327134, 0.904221, -0.361767, 0.326938, 0.872933, -0.348274, 0.415231, 0.840277, -0.264188, -0.415427, 0.870391, -0.331457, -0.5, 0.799993, -0.408308, 0.5, 0.763621, -0.384059, 0.579875, 0.718254, -0.452697, 0.579875, 0.677188, -0.311902, -0.58007, 0.752475, -0.356291, -0.655051, 0.666433, -0.420041, 0.654855, 0.628301, -0.325395, -0.723767, 0.60855, -0.383473, 0.723571, 0.573743, -0.437836, 0.723571, 0.533264, -0.392272, 0.786022, 0.477728, -0.437249, 0.786022, 0.437053, -0.342994, -0.841425, 0.41789, -0.343581, -0.786218, 0.513904, -0.382299, 0.841229, 0.382104, -0.354336, 0.888802, 0.290587, -0.381126, 0.888802, 0.25441, -0.309164, -0.928543, 0.206305, -0.287458, -0.928543, 0.235637, -0.324026, -0.888998, 0.32383, -0.290782, -0.888998, 0.35414, -0.381126, 0.888802, -0.254606, -0.354336, 0.888802, -0.290782, -0.382299, 0.841229, -0.382299, -0.437249, 0.786022, -0.437249, -0.392272, 0.786022, -0.477923, -0.437836, 0.723571, -0.533459, -0.383473, 0.723571, -0.573938, -0.420041, 0.654855, -0.628496, -0.452697, 0.579875, -0.677384, -0.384059, 0.579875, -0.718449, -0.408308, 0.5, -0.763817, -0.371935, 0.235708, -0.897964, -0.378975, 0.14213, -0.914585, -0.382299, 0.0475723, -0.922994, -0.361767, 0.326938, -0.873129, -0.348274, 0.415231, -0.840472, -0.327937, 0.928347, 0.175017, -0.343385, 0.928347, 0.142165, -0.355705, 0.928347, 0.107748, -0.3647, 0.928347, 0.0723533, -0.36998, 0.928347, 0.0363722, -0.37174, 0.928347, 0, -0.36998, 0.928347, -0.0365677, -0.3647, 0.928347, -0.0725489, -0.355705, 0.928347, -0.107943, -0.343385, 0.928347, -0.14236, -0.327937, 0.928347, -0.175212, -0.29, -0.0477684, -0.956042, -0.287458, -0.142326, -0.947242, -0.282178, -0.235905, -0.930034, -0.274356, -0.327134, -0.904417, -0.264188, -0.415427, -0.870587, -0.331457, -0.5, -0.800189, -0.311902, -0.58007, -0.75267, -0.356291, -0.655051, -0.666629, -0.325395, -0.723767, -0.608746, -0.343581, -0.786218, -0.5141, -0.342994, -0.841425, -0.418085, -0.290782, -0.888998, -0.354336, -0.324026, -0.888998, -0.324026, -0.287458, -0.928543, -0.235833, -0.309164, -0.928543, -0.2065, -0.248544, -0.959671, -0.132974, -0.260472, -0.959671, -0.107943, -0.269663, -0.959671, -0.0819353, -0.276507, -0.959671, -0.055145, -0.280418, -0.959671, -0.027768, -0.281787, -0.959671, 0, -0.280418, -0.959671, 0.0275725, -0.276507, -0.959671, 0.0549495, -0.269663, -0.959671, 0.0817397, -0.260472, -0.959671, 0.107748, -0.248544, -0.959671, 0.132778, -0.194963, -0.0477684, 0.979508, -0.29, 0.0475723, 0.955846, -0.193203, -0.142326, 0.970708, -0.287458, 0.14213, 0.947047, -0.282178, 0.235708, 0.929838, -0.274356, 0.326938, 0.904221, -0.189683, -0.235905, 0.953109, -0.184403, -0.327134, 0.92671, -0.177559, -0.415427, 0.892097, -0.264188, 0.415231, 0.870391, -0.331457, 0.5, 0.799993, -0.251477, -0.5, 0.828544, -0.168955, -0.5, 0.849272, -0.236615, -0.58007, 0.779461, -0.311902, 0.579875, 0.752475, -0.356291, 0.654855, 0.666433, -0.289218, -0.655051, 0.698112, -0.219407, -0.655051, 0.723142, -0.264188, -0.723767, 0.637492, -0.325395, 0.723571, 0.60855, -0.291564, -0.786218, 0.544997, -0.236615, -0.786218, 0.571005, -0.343581, 0.786022, 0.513904, -0.342994, 0.841229, 0.41789, -0.300364, -0.841425, 0.449373, -0.254606, -0.888998, 0.380931, -0.254997, -0.841425, 0.47675, -0.290782, 0.888802, 0.35414, -0.324026, 0.888802, 0.32383, -0.287458, 0.928347, 0.235637, -0.309164, 0.928347, 0.206305, -0.234268, -0.959671, 0.15644, -0.217842, -0.959671, 0.178537, -0.199265, -0.959671, 0.199069, -0.262819, -0.928543, 0.262623, -0.235833, -0.928543, 0.287262, -0.309164, 0.928347, -0.2065, -0.287458, 0.928347, -0.235833, -0.324026, 0.888802, -0.324026, -0.290782, 0.888802, -0.354336, -0.342994, 0.841229, -0.418085, -0.343581, 0.786022, -0.5141, -0.325395, 0.723571, -0.608746, -0.356291, 0.654855, -0.666629, -0.311902, 0.579875, -0.75267, -0.331457, 0.5, -0.800189, -0.282178, 0.235708, -0.930034, -0.274356, 0.326938, -0.904417, -0.287458, 0.14213, -0.947242, -0.29, 0.0475723, -0.956042, -0.264188, 0.415231, -0.870587, -0.248544, 0.959475, 0.132778, -0.260472, 0.959475, 0.107748, -0.269663, 0.959475, 0.0817397, -0.276507, 0.959475, 0.0549495, -0.280418, 0.959475, 0.0275725, -0.281787, 0.959475, 0, -0.280418, 0.959475, -0.027768, -0.276507, 0.959475, -0.055145, -0.269663, 0.959475, -0.0819353, -0.260472, 0.959475, -0.107943, -0.248544, 0.959475, -0.132974, -0.194963, -0.0477684, -0.979703, -0.193203, -0.142326, -0.970904, -0.189683, -0.235905, -0.953304, -0.184403, -0.327134, -0.926905, -0.177559, -0.415427, -0.892293, -0.168955, -0.5, -0.849467, -0.251477, -0.5, -0.828739, -0.236615, -0.58007, -0.779656, -0.219407, -0.655051, -0.723338, -0.289218, -0.655051, -0.698308, -0.264188, -0.723767, -0.637687, -0.236615, -0.786218, -0.5712, -0.291564, -0.786218, -0.545192, -0.254997, -0.841425, -0.476945, -0.300364, -0.841425, -0.449569, -0.254606, -0.888998, -0.381126, -0.235833, -0.928543, -0.287458, -0.262819, -0.928543, -0.262819, -0.199265, -0.959671, -0.199265, -0.217842, -0.959671, -0.178732, -0.234268, -0.959671, -0.156635, -0.166999, -0.981989, -0.0893661, -0.175017, -0.981989, -0.0725489, -0.181274, -0.981989, -0.0549494, -0.185772, -0.981989, -0.0369589, -0.18851, -0.981989, -0.0185772, -0.189292, -0.981989, 0, -0.18851, -0.981989, 0.0183817, -0.185772, -0.981989, 0.0367634, -0.181274, -0.981989, 0.0547538, -0.175017, -0.981989, 0.0723533, -0.166999, -0.981989, 0.0891706, -0.0979704, -0.0477684, 0.993979, -0.194963, 0.0475723, 0.979508, -0.193203, 0.14213, 0.970708, -0.0971881, -0.142326, 0.984983, -0.189683, 0.235708, 0.953109, -0.184403, 0.326938, 0.92671, -0.177559, 0.415231, 0.892097, -0.0954282, -0.235905, 0.966993, -0.0926905, -0.327134, 0.940398, -0.0891706, -0.415427, 0.905199, -0.0850641, -0.5, 0.861787, -0.168955, 0.5, 0.849272, -0.251477, 0.5, 0.828544, -0.236615, 0.579875, 0.779461, -0.158982, -0.58007, 0.79882, -0.147444, -0.655051, 0.741133, -0.219407, 0.654855, 0.723142, -0.289218, 0.654855, 0.698112, -0.264188, 0.723571, 0.637492, -0.200438, -0.723767, 0.660176, -0.134734, -0.723767, 0.676797, -0.179515, -0.786218, 0.591538, -0.236615, 0.786022, 0.571005, -0.291564, 0.786022, 0.544997, -0.207087, -0.841425, 0.499434, -0.254997, 0.841229, 0.47675, -0.300364, 0.841229, 0.449373, -0.254606, 0.888802, 0.380931, -0.216082, -0.888998, 0.404005, -0.2065, -0.928543, 0.308968, -0.175212, -0.928543, 0.327741, -0.235833, 0.928347, 0.287262, -0.262819, 0.928347, 0.262623, -0.199265, 0.959475, 0.199069, -0.217842, 0.959475, 0.178537, -0.234268, 0.959475, 0.15644, -0.157417, -0.981989, 0.10501, -0.146467, -0.981989, 0.119872, -0.133951, -0.981989, 0.133756, -0.178732, -0.959671, 0.217647, -0.156635, -0.959671, 0.234073, -0.234268, 0.959475, -0.156635, -0.217842, 0.959475, -0.178732, -0.199265, 0.959475, -0.199265, -0.262819, 0.928347, -0.262819, -0.235833, 0.928347, -0.287458, -0.254606, 0.888802, -0.381126, -0.300364, 0.841229, -0.449569, -0.254997, 0.841229, -0.476945, -0.291564, 0.786022, -0.545192, -0.236615, 0.786022, -0.5712, -0.264188, 0.723571, -0.637687, -0.289218, 0.654855, -0.698308, -0.219407, 0.654855, -0.723338, -0.236615, 0.579875, -0.779656, -0.251477, 0.5, -0.828739, -0.189683, 0.235708, -0.953304, -0.184403, 0.326938, -0.926905, -0.177559, 0.415231, -0.892293, -0.193203, 0.14213, -0.970904, -0.194963, 0.0475723, -0.979703, -0.168955, 0.5, -0.849467, -0.166999, 0.981793, 0.0891706, -0.175017, 0.981793, 0.0723533, -0.181274, 0.981793, 0.0547538, -0.185772, 0.981793, 0.0367634, -0.18851, 0.981793, 0.0183817, -0.189292, 0.981793, 0, -0.18851, 0.981793, -0.0185772, -0.185772, 0.981793, -0.0369589, -0.181274, 0.981793, -0.0549494, -0.175017, 0.981793, -0.0725489, -0.166999, 0.981793, -0.0893661, -0.0979704, -0.0477684, -0.994174, -0.0971881, -0.142326, -0.985179, -0.0954282, -0.235905, -0.967188, -0.0926905, -0.327134, -0.940594, -0.0891706, -0.415427, -0.905395, -0.0850641, -0.5, -0.861983, -0.158982, -0.58007, -0.799016, -0.147444, -0.655051, -0.741328, -0.134734, -0.723767, -0.676993, -0.200438, -0.723767, -0.660371, -0.179515, -0.786218, -0.591733, -0.207087, -0.841425, -0.499629, -0.216082, -0.888998, -0.404201, -0.175212, -0.928543, -0.327937, -0.2065, -0.928543, -0.309164, -0.156635, -0.959671, -0.234268, -0.178732, -0.959671, -0.217842, -0.133951, -0.981989, -0.133951, -0.146467, -0.981989, -0.120067, -0.157417, -0.981989, -0.105206, -0.0791976, -0.995497, -0.052994, -0.0838908, -0.995497, -0.0449764, -0.0879973, -0.995497, -0.0365677, -0.0911261, -0.995497, -0.027768, -0.0932772, -0.995497, -0.0185772, -0.094646, -0.995497, -0.00938636, -0.0952327, -0.995497, 0, -0.094646, -0.995497, 0.00919086, -0.0932772, -0.995497, 0.0183817, -0.0911261, -0.995497, 0.0275725, -0.0879973, -0.995497, 0.0363722, -0.0838908, -0.995497, 0.0447809, -0.0791976, -0.995497, 0.0527984, 0, -0.0477684, 0.998867, -0.0979704, 0.0475723, 0.993979, -0.0971881, 0.14213, 0.984983, 0, -0.142326, 0.989677, 0, -0.235905, 0.971686, -0.0954282, 0.235708, 0.966993, -0.0926905, 0.326938, 0.940398, -0.0891706, 0.415231, 0.905199, -0.0850641, 0.5, 0.861787, 0, -0.327134, 0.944896, 0, -0.415427, 0.909501, 0, -0.5, 0.865894, -0.0799798, -0.58007, 0.810553, 0, -0.58007, 0.814464, -0.158982, 0.579875, 0.79882, -0.147444, 0.654855, 0.741133, -0.0741133, -0.655051, 0.752084, -0.134734, 0.723571, 0.676797, -0.200438, 0.723571, 0.660176, -0.179515, 0.786022, 0.591538, -0.0676602, -0.723767, 0.686575, -0.120654, -0.786218, 0.606204, -0.0606204, -0.786218, 0.615004, -0.157026, -0.841425, 0.517229, -0.105597, -0.841425, 0.530135, -0.207087, 0.841229, 0.499434, -0.175408, -0.888998, 0.423169, -0.133169, -0.888998, 0.438422, -0.216082, 0.888802, 0.404005, -0.175212, 0.928347, 0.327741, -0.2065, 0.928347, 0.308968, -0.132974, -0.959671, 0.248348, -0.107943, -0.959671, 0.260276, -0.14236, -0.928543, 0.34319, -0.156635, 0.959475, 0.234073, -0.178732, 0.959475, 0.217647, -0.133951, 0.981793, 0.133756, -0.146467, 0.981793, 0.119872, -0.157417, 0.981793, 0.10501, -0.0735266, -0.995497, 0.0602292, -0.067269, -0.995497, 0.0670735, -0.0604248, -0.995497, 0.0733311, -0.120067, -0.981989, 0.146271, -0.105206, -0.981989, 0.157222, -0.0893661, -0.981989, 0.166804, -0.157417, 0.981793, -0.105206, -0.146467, 0.981793, -0.120067, -0.133951, 0.981793, -0.133951, -0.178732, 0.959475, -0.217842, -0.156635, 0.959475, -0.234268, -0.2065, 0.928347, -0.309164, -0.175212, 0.928347, -0.327937, -0.216082, 0.888802, -0.404201, -0.207087, 0.841229, -0.499629, -0.179515, 0.786022, -0.591733, -0.200438, 0.723571, -0.660371, -0.134734, 0.723571, -0.676993, -0.147444, 0.654855, -0.741328, -0.158982, 0.579875, -0.799016, -0.0954282, 0.235708, -0.967188, -0.0971881, 0.14213, -0.985179, -0.0926905, 0.326938, -0.940594, -0.0891706, 0.415231, -0.905395, -0.0850641, 0.5, -0.861983, -0.0979704, 0.0475723, -0.994174, -0.0791976, 0.995301, 0.0527984, -0.0838908, 0.995301, 0.0447809, -0.0879973, 0.995301, 0.0363722, -0.0911261, 0.995301, 0.0275725, -0.0932772, 0.995301, 0.0183817, -0.094646, 0.995301, 0.00919086, -0.0952327, 0.995301, 0, -0.094646, 0.995301, -0.00938636, -0.0932772, 0.995301, -0.0185772, -0.0911261, 0.995301, -0.027768, -0.0879973, 0.995301, -0.0365677, -0.0838908, 0.995301, -0.0449764, -0.0791976, 0.995301, -0.052994, 0, -0.0477684, -0.998867, 0, -0.142326, -0.989872, 0, -0.235905, -0.971882, 0, -0.327134, -0.945091, 0, -0.415427, -0.909697, 0, -0.5, -0.866089, 0, -0.58007, -0.81466, -0.0799798, -0.58007, -0.810749, -0.0741133, -0.655051, -0.752279, -0.0676602, -0.723767, -0.68677, -0.0606204, -0.786218, -0.615199, -0.120654, -0.786218, -0.606399, -0.105597, -0.841425, -0.530331, -0.157026, -0.841425, -0.517424, -0.133169, -0.888998, -0.438618, -0.175408, -0.888998, -0.423365, -0.14236, -0.928543, -0.343385, -0.107943, -0.959671, -0.260472, -0.132974, -0.959671, -0.248544, -0.0893661, -0.981989, -0.166999, -0.105206, -0.981989, -0.157417, -0.120067, -0.981989, -0.146467, -0.0604248, -0.995497, -0.0735266, -0.067269, -0.995497, -0.067269, -0.0735266, -0.995497, -0.0604248, 0, -1, 0, 0.0977748, -0.0477684, 0.993979, 0, 0.0475723, 0.998867, 0.0969926, -0.142326, 0.984983, 0, 0.14213, 0.989677, 0, 0.235708, 0.971686, 0.0952327, -0.235905, 0.966993, 0.092495, -0.327134, 0.940398, 0, 0.326938, 0.944896, 0, 0.415231, 0.909501, 0, 0.5, 0.865894, 0, 0.579875, 0.814464, -0.0799798, 0.579875, 0.810553, 0.0889751, -0.415427, 0.905199, 0.0848685, -0.5, 0.861787, 0.0797842, -0.58007, 0.810553, 0, -0.655051, 0.755604, 0.0739178, -0.655051, 0.752084, -0.0741133, 0.654855, 0.752084, 0, -0.723767, 0.689899, -0.0676602, 0.723571, 0.686575, -0.0606204, 0.786022, 0.615004, -0.120654, 0.786022, 0.606204, -0.105597, 0.841229, 0.530135, -0.157026, 0.841229, 0.517229, 0, -0.786218, 0.618132, -0.052994, -0.841425, 0.537957, -0.0895617, -0.888998, 0.449373, -0.133169, 0.888802, 0.438422, -0.175408, 0.888802, 0.423169, -0.107943, -0.928543, 0.355509, -0.0725489, -0.928543, 0.364505, -0.14236, 0.928347, 0.34319, -0.107943, 0.959475, 0.260276, -0.132974, 0.959475, 0.248348, -0.0725489, -0.981989, 0.174821, -0.0549494, -0.981989, 0.181079, -0.0819353, -0.959671, 0.269467, -0.0893661, 0.981793, 0.166804, -0.105206, 0.981793, 0.157222, -0.120067, 0.981793, 0.146271, -0.0604248, 0.995301, 0.0733311, -0.067269, 0.995301, 0.0670735, -0.0735266, 0.995301, 0.0602292, -0.052994, -0.995497, 0.0790021, -0.0449764, -0.995497, 0.0836952, -0.0365677, -0.995497, 0.0878018, -0.0735266, 0.995301, -0.0604248, -0.067269, 0.995301, -0.067269, -0.0604248, 0.995301, -0.0735266, -0.120067, 0.981793, -0.146467, -0.105206, 0.981793, -0.157417, -0.0893661, 0.981793, -0.166999, -0.132974, 0.959475, -0.248544, -0.107943, 0.959475, -0.260472, -0.14236, 0.928347, -0.343385, -0.175408, 0.888802, -0.423365, -0.133169, 0.888802, -0.438618, -0.157026, 0.841229, -0.517424, -0.105597, 0.841229, -0.530331, -0.120654, 0.786022, -0.606399, -0.0606204, 0.786022, -0.615199, -0.0676602, 0.723571, -0.68677, -0.0741133, 0.654855, -0.752279, -0.0799798, 0.579875, -0.810749, 0, 0.235708, -0.971882, 0, 0.14213, -0.989872, 0, 0.326938, -0.945091, 0, 0.415231, -0.909697, 0, 0.5, -0.866089, 0, 0.579875, -0.81466, 0, 0.0475723, -0.998867, 0, 1, 0, 0.0977748, -0.0477684, -0.994174, 0.0969926, -0.142326, -0.985179, 0.0952327, -0.235905, -0.967188, 0.092495, -0.327134, -0.940594, 0.0889751, -0.415427, -0.905395, 0.0848685, -0.5, -0.861983, 0.0797842, -0.58007, -0.810749, 0.0739178, -0.655051, -0.752279, 0, -0.655051, -0.755799, 0, -0.723767, -0.690095, 0, -0.786218, -0.618328, -0.052994, -0.841425, -0.538152, -0.0895617, -0.888998, -0.449569, -0.0725489, -0.928543, -0.3647, -0.107943, -0.928543, -0.355705, -0.0819353, -0.959671, -0.269663, -0.0549494, -0.981989, -0.181274, -0.0725489, -0.981989, -0.175017, -0.0365677, -0.995497, -0.0879973, -0.0449764, -0.995497, -0.0838908, -0.052994, -0.995497, -0.0791976, -0.027768, -0.995497, -0.0911261, -0.0185772, -0.995497, -0.0932772, -0.00938636, -0.995497, -0.094646, 0, -0.995497, -0.0952327, 0.00919086, -0.995497, -0.094646, 0.0183817, -0.995497, -0.0932772, 0.0275725, -0.995497, -0.0911261, 0.0363722, -0.995497, -0.0879973, 0.0447809, -0.995497, -0.0838908, 0.0527984, -0.995497, -0.0791976, 0.0602292, -0.995497, -0.0735266, 0.0670735, -0.995497, -0.067269, 0.0733311, -0.995497, -0.0604248, 0.0790021, -0.995497, -0.052994, 0.0836952, -0.995497, -0.0449764, 0.0878018, -0.995497, -0.0365677, 0.0909305, -0.995497, -0.027768, 0.0930817, -0.995497, -0.0185772, 0.0944504, -0.995497, -0.00938636, 0.0950372, -0.995497, 0, 0.0944504, -0.995497, 0.00919086, 0.0930817, -0.995497, 0.0183817, 0.0909305, -0.995497, 0.0275725, 0.0878018, -0.995497, 0.0363722, 0.0836952, -0.995497, 0.0447809, 0.0790021, -0.995497, 0.0527984, 0.0733311, -0.995497, 0.0602292, 0.0670735, -0.995497, 0.0670735, 0.0602292, -0.995497, 0.0733311, 0.0527984, -0.995497, 0.0790021, 0.0447809, -0.995497, 0.0836952, 0.0363722, -0.995497, 0.0878018, 0.0275725, -0.995497, 0.0909305, 0.0183817, -0.995497, 0.0930817, 0.00919086, -0.995497, 0.0944504, 0, -0.995497, 0.0950372, -0.00938636, -0.995497, 0.0944504, -0.0185772, -0.995497, 0.0930817, -0.027768, -0.995497, 0.0909305, 0.194767, -0.0477684, 0.979508, 0.0977748, 0.0475723, 0.993979, 0.193007, -0.142326, 0.970708, 0.0969926, 0.14213, 0.984983, 0.189488, -0.235905, 0.953109, 0.0952327, 0.235708, 0.966993, 0.092495, 0.326938, 0.940398, 0.184208, -0.327134, 0.92671, 0.177363, -0.415427, 0.892097, 0.0889751, 0.415231, 0.905199, 0.0848685, 0.5, 0.861787, 0.0797842, 0.579875, 0.810553, 0.0739178, 0.654855, 0.752084, 0, 0.654855, 0.755604, 0.168759, -0.5, 0.849272, 0.158786, -0.58007, 0.79882, 0.0674646, -0.723767, 0.686575, 0.134538, -0.723767, 0.676797, 0.147249, -0.655051, 0.741133, 0, 0.723571, 0.689899, 0, 0.786022, 0.618132, -0.052994, 0.841229, 0.537957, -0.0895617, 0.888802, 0.449373, 0.0604249, -0.786218, 0.615004, 0, -0.841425, 0.540499, 0.0527984, -0.841425, 0.537957, -0.0449764, -0.888998, 0.455826, 0, -0.888998, 0.458173, -0.0365677, -0.928543, 0.369784, -0.0725489, 0.928347, 0.364505, -0.107943, 0.928347, 0.355509, -0.055145, -0.959671, 0.276312, -0.0819353, 0.959475, 0.269467, -0.0549494, 0.981793, 0.181079, -0.0725489, 0.981793, 0.174821, -0.0369589, -0.981989, 0.185577, -0.0365677, 0.995301, 0.0878018, -0.0449764, 0.995301, 0.0836952, -0.052994, 0.995301, 0.0790021, -0.052994, 0.995301, -0.0791976, -0.0449764, 0.995301, -0.0838908, -0.0365677, 0.995301, -0.0879973, -0.0725489, 0.981793, -0.175017, -0.0549494, 0.981793, -0.181274, -0.0819353, 0.959475, -0.269663, -0.107943, 0.928347, -0.355705, -0.0725489, 0.928347, -0.3647, -0.0895617, 0.888802, -0.449569, -0.052994, 0.841229, -0.538152, 0, 0.786022, -0.618328, 0, 0.723571, -0.690095, 0, 0.654855, -0.755799, 0.0952327, 0.235708, -0.967188, 0.0969926, 0.14213, -0.985179, 0.092495, 0.326938, -0.940594, 0.0977748, 0.0475723, -0.994174, 0.0889751, 0.415231, -0.905395, 0.0848685, 0.5, -0.861983, 0.0797842, 0.579875, -0.810749, 0.0739178, 0.654855, -0.752279, 0.0950372, 0.995301, 0, 0.0944504, 0.995301, -0.00938636, 0.0930817, 0.995301, -0.0185772, 0.0909305, 0.995301, -0.027768, 0.0878018, 0.995301, -0.0365677, 0.0836952, 0.995301, -0.0449764, 0.0790021, 0.995301, -0.052994, 0.0733311, 0.995301, -0.0604248, 0.0670735, 0.995301, -0.067269, 0.0602292, 0.995301, -0.0735266, 0.0527984, 0.995301, -0.0791976, 0.0447809, 0.995301, -0.0838908, 0.0363722, 0.995301, -0.0879973, 0.0275725, 0.995301, -0.0911261, 0.0183817, 0.995301, -0.0932772, 0.00919086, 0.995301, -0.094646, 0, 0.995301, -0.0952327, -0.00938636, 0.995301, -0.094646, -0.0185772, 0.995301, -0.0932772, -0.027768, 0.995301, -0.0911261, -0.027768, 0.995301, 0.0909305, -0.0185772, 0.995301, 0.0930817, -0.00938636, 0.995301, 0.0944504, 0, 0.995301, 0.0950372, 0.00919086, 0.995301, 0.0944504, 0.0183817, 0.995301, 0.0930817, 0.0275725, 0.995301, 0.0909305, 0.0363722, 0.995301, 0.0878018, 0.0447809, 0.995301, 0.0836952, 0.0527984, 0.995301, 0.0790021, 0.0602292, 0.995301, 0.0733311, 0.0670735, 0.995301, 0.0670735, 0.0733311, 0.995301, 0.0602292, 0.0790021, 0.995301, 0.0527984, 0.0836952, 0.995301, 0.0447809, 0.0878018, 0.995301, 0.0363722, 0.0909305, 0.995301, 0.0275725, 0.0930817, 0.995301, 0.0183817, 0.0944504, 0.995301, 0.00919086, 0.194767, -0.0477684, -0.979703, 0.193007, -0.142326, -0.970904, 0.189488, -0.235905, -0.953304, 0.184208, -0.327134, -0.926905, 0.177363, -0.415427, -0.892293, 0.168759, -0.5, -0.849467, 0.158786, -0.58007, -0.799016, 0.134538, -0.723767, -0.676993, 0.0674646, -0.723767, -0.68677, 0.147249, -0.655051, -0.741328, 0.0604249, -0.786218, -0.615199, 0.0527984, -0.841425, -0.538152, 0, -0.841425, -0.540695, 0, -0.888998, -0.458368, -0.0449764, -0.888998, -0.456022, -0.0365677, -0.928543, -0.36998, -0.055145, -0.959671, -0.276507, -0.0369589, -0.981989, -0.185772, -0.0185772, -0.981989, -0.18851, 0, -0.981989, -0.189292, 0.0183817, -0.981989, -0.18851, 0.0367634, -0.981989, -0.185772, 0.0547538, -0.981989, -0.181274, 0.0723533, -0.981989, -0.175017, 0.0891706, -0.981989, -0.166999, 0.10501, -0.981989, -0.157417, 0.119872, -0.981989, -0.146467, 0.133756, -0.981989, -0.133951, 0.146271, -0.981989, -0.120067, 0.157222, -0.981989, -0.105206, 0.166804, -0.981989, -0.0893661, 0.174821, -0.981989, -0.0725489, 0.181079, -0.981989, -0.0549494, 0.185577, -0.981989, -0.0369589, 0.188314, -0.981989, -0.0185772, 0.189097, -0.981989, 0, 0.188314, -0.981989, 0.0183817, 0.185577, -0.981989, 0.0367634, 0.181079, -0.981989, 0.0547538, 0.174821, -0.981989, 0.0723533, 0.166804, -0.981989, 0.0891706, 0.157222, -0.981989, 0.10501, 0.146271, -0.981989, 0.119872, 0.133756, -0.981989, 0.133756, 0.119872, -0.981989, 0.146271, 0.10501, -0.981989, 0.157222, 0.0891706, -0.981989, 0.166804, 0.0723533, -0.981989, 0.174821, 0.0547538, -0.981989, 0.181079, 0.0367634, -0.981989, 0.185577, 0.0183817, -0.981989, 0.188314, 0, -0.981989, 0.189097, -0.0185772, -0.981989, 0.188314, 0.289805, -0.0477684, 0.955846, 0.194767, 0.0475723, 0.979508, 0.193007, 0.14213, 0.970708, 0.287262, -0.142326, 0.947047, 0.189488, 0.235708, 0.953109, 0.281982, -0.235905, 0.929838, 0.274161, -0.327134, 0.904221, 0.184208, 0.326938, 0.92671, 0.177363, 0.415231, 0.892097, 0.263992, -0.415427, 0.870391, 0.168759, 0.5, 0.849272, 0.158786, 0.579875, 0.79882, 0.147249, 0.654855, 0.741133, 0.134538, 0.723571, 0.676797, 0.0674646, 0.723571, 0.686575, 0.251281, -0.5, 0.828544, 0.236419, -0.58007, 0.779461, 0.120459, -0.786218, 0.606204, 0.179319, -0.786218, 0.591538, 0.200243, -0.723767, 0.660176, 0.219211, -0.655051, 0.723142, 0.0604249, 0.786022, 0.615004, 0.0527984, 0.841229, 0.537957, 0, 0.841229, 0.540499, 0, 0.888802, 0.458173, -0.0449764, 0.888802, 0.455826, -0.0365677, 0.928347, 0.369784, 0.0447809, -0.888998, 0.455826, 0.0893661, -0.888998, 0.449373, 0.105401, -0.841425, 0.530135, 0, -0.928543, 0.371544, 0.0363722, -0.928543, 0.369784, -0.027768, -0.959671, 0.280223, 0, -0.959671, 0.281591, -0.055145, 0.959475, 0.276312, -0.0369589, 0.981793, 0.185577, -0.0369589, 0.981793, -0.185772, -0.055145, 0.959475, -0.276507, -0.0365677, 0.928347, -0.36998, -0.0449764, 0.888802, -0.456022, 0, 0.888802, -0.458368, 0, 0.841229, -0.540695, 0.0527984, 0.841229, -0.538152, 0.0604249, 0.786022, -0.615199, 0.0674646, 0.723571, -0.68677, 0.189488, 0.235708, -0.953304, 0.193007, 0.14213, -0.970904, 0.184208, 0.326938, -0.926905, 0.177363, 0.415231, -0.892293, 0.194767, 0.0475723, -0.979703, 0.168759, 0.5, -0.849467, 0.158786, 0.579875, -0.799016, 0.134538, 0.723571, -0.676993, 0.147249, 0.654855, -0.741328, 0.188314, 0.981793, 0.0183817, 0.189097, 0.981793, 0, 0.188314, 0.981793, -0.0185772, 0.185577, 0.981793, -0.0369589, 0.181079, 0.981793, -0.0549494, 0.174821, 0.981793, -0.0725489, 0.166804, 0.981793, -0.0893661, 0.157222, 0.981793, -0.105206, 0.146271, 0.981793, -0.120067, 0.133756, 0.981793, -0.133951, 0.119872, 0.981793, -0.146467, 0.10501, 0.981793, -0.157417, 0.0891706, 0.981793, -0.166999, 0.0723533, 0.981793, -0.175017, 0.0547538, 0.981793, -0.181274, 0.0367634, 0.981793, -0.185772, 0.0183817, 0.981793, -0.18851, 0, 0.981793, -0.189292, -0.0185772, 0.981793, -0.18851, -0.0185772, 0.981793, 0.188314, 0, 0.981793, 0.189097, 0.0183817, 0.981793, 0.188314, 0.0367634, 0.981793, 0.185577, 0.0547538, 0.981793, 0.181079, 0.0723533, 0.981793, 0.174821, 0.0891706, 0.981793, 0.166804, 0.10501, 0.981793, 0.157222, 0.119872, 0.981793, 0.146271, 0.133756, 0.981793, 0.133756, 0.146271, 0.981793, 0.119872, 0.157222, 0.981793, 0.10501, 0.166804, 0.981793, 0.0891706, 0.174821, 0.981793, 0.0723533, 0.181079, 0.981793, 0.0547538, 0.185577, 0.981793, 0.0367634, 0.289805, -0.0477684, -0.956042, 0.287262, -0.142326, -0.947242, 0.281982, -0.235905, -0.930034, 0.274161, -0.327134, -0.904417, 0.263992, -0.415427, -0.870587, 0.251281, -0.5, -0.828739, 0.236419, -0.58007, -0.779656, 0.200243, -0.723767, -0.660371, 0.179319, -0.786218, -0.591733, 0.120459, -0.786218, -0.606399, 0.219211, -0.655051, -0.723338, 0.105401, -0.841425, -0.530331, 0.0893661, -0.888998, -0.449569, 0.0447809, -0.888998, -0.456022, 0.0363722, -0.928543, -0.36998, 0, -0.928543, -0.37174, 0, -0.959671, -0.281787, -0.027768, -0.959671, -0.280418, 0.0275725, -0.959671, -0.280418, 0.0549495, -0.959671, -0.276507, 0.0817397, -0.959671, -0.269663, 0.107748, -0.959671, -0.260472, 0.132778, -0.959671, -0.248544, 0.15644, -0.959671, -0.234268, 0.178537, -0.959671, -0.217842, 0.199069, -0.959671, -0.199265, 0.217647, -0.959671, -0.178732, 0.234073, -0.959671, -0.156635, 0.248348, -0.959671, -0.132974, 0.260276, -0.959671, -0.107943, 0.269467, -0.959671, -0.0819353, 0.276312, -0.959671, -0.055145, 0.280223, -0.959671, -0.027768, 0.281591, -0.959671, 0, 0.280223, -0.959671, 0.0275725, 0.276312, -0.959671, 0.0549495, 0.269467, -0.959671, 0.0817397, 0.260276, -0.959671, 0.107748, 0.248348, -0.959671, 0.132778, 0.234073, -0.959671, 0.15644, 0.217647, -0.959671, 0.178537, 0.199069, -0.959671, 0.199069, 0.178537, -0.959671, 0.217647, 0.15644, -0.959671, 0.234073, 0.132778, -0.959671, 0.248348, 0.107748, -0.959671, 0.260276, 0.0817397, -0.959671, 0.269467, 0.0549495, -0.959671, 0.276312, 0.0275725, -0.959671, 0.280223, 0.382104, -0.0477684, 0.922799, 0.289805, 0.0475723, 0.955846, 0.37878, -0.142326, 0.91439, 0.287262, 0.14213, 0.947047, 0.281982, 0.235708, 0.929838, 0.274161, 0.326938, 0.904221, 0.37174, -0.235905, 0.897768, 0.361571, -0.327134, 0.872933, 0.263992, 0.415231, 0.870391, 0.348078, -0.415427, 0.840277, 0.331261, -0.5, 0.799993, 0.251281, 0.5, 0.828544, 0.236419, 0.579875, 0.779461, 0.219211, 0.654855, 0.723142, 0.200243, 0.723571, 0.660176, 0.179319, 0.786022, 0.591538, 0.120459, 0.786022, 0.606204, 0.311706, -0.58007, 0.752475, 0.156831, -0.841425, 0.517229, 0.206891, -0.841425, 0.499434, 0.236419, -0.786218, 0.571005, 0.263992, -0.723767, 0.637492, 0.289022, -0.655051, 0.698112, 0.105401, 0.841229, 0.530135, 0.0893661, 0.888802, 0.449373, 0.0447809, 0.888802, 0.455826, 0.0363722, 0.928347, 0.369784, 0, 0.928347, 0.371544, 0, 0.959475, 0.281591, -0.027768, 0.959475, 0.280223, 0.0723533, -0.928543, 0.364505, 0.132974, -0.888998, 0.438422, -0.027768, 0.959475, -0.280418, 0, 0.959475, -0.281787, 0, 0.928347, -0.37174, 0.0363722, 0.928347, -0.36998, 0.0447809, 0.888802, -0.456022, 0.0893661, 0.888802, -0.449569, 0.105401, 0.841229, -0.530331, 0.120459, 0.786022, -0.606399, 0.281982, 0.235708, -0.930034, 0.287262, 0.14213, -0.947242, 0.274161, 0.326938, -0.904417, 0.289805, 0.0475723, -0.956042, 0.263992, 0.415231, -0.870587, 0.251281, 0.5, -0.828739, 0.236419, 0.579875, -0.779656, 0.200243, 0.723571, -0.660371, 0.219211, 0.654855, -0.723338, 0.179319, 0.786022, -0.591733, 0.276312, 0.959475, 0.0549495, 0.280223, 0.959475, 0.0275725, 0.281591, 0.959475, 0, 0.280223, 0.959475, -0.027768, 0.276312, 0.959475, -0.055145, 0.269467, 0.959475, -0.0819353, 0.260276, 0.959475, -0.107943, 0.248348, 0.959475, -0.132974, 0.234073, 0.959475, -0.156635, 0.217647, 0.959475, -0.178732, 0.199069, 0.959475, -0.199265, 0.178537, 0.959475, -0.217842, 0.15644, 0.959475, -0.234268, 0.132778, 0.959475, -0.248544, 0.107748, 0.959475, -0.260472, 0.0817397, 0.959475, -0.269663, 0.0549495, 0.959475, -0.276507, 0.0275725, 0.959475, -0.280418, 0.0275725, 0.959475, 0.280223, 0.0549495, 0.959475, 0.276312, 0.0817397, 0.959475, 0.269467, 0.107748, 0.959475, 0.260276, 0.132778, 0.959475, 0.248348, 0.15644, 0.959475, 0.234073, 0.178537, 0.959475, 0.217647, 0.199069, 0.959475, 0.199069, 0.217647, 0.959475, 0.178537, 0.234073, 0.959475, 0.15644, 0.248348, 0.959475, 0.132778, 0.260276, 0.959475, 0.107748, 0.269467, 0.959475, 0.0817397, 0.382104, -0.0477684, -0.922994, 0.37878, -0.142326, -0.914585, 0.37174, -0.235905, -0.897964, 0.361571, -0.327134, -0.873129, 0.348078, -0.415427, -0.840472, 0.331261, -0.5, -0.800189, 0.311706, -0.58007, -0.75267, 0.263992, -0.723767, -0.637687, 0.236419, -0.786218, -0.5712, 0.206891, -0.841425, -0.499629, 0.156831, -0.841425, -0.517424, 0.289022, -0.655051, -0.698308, 0.132974, -0.888998, -0.438618, 0.0723533, -0.928543, -0.3647, 0.107748, -0.928543, -0.355705, 0.142165, -0.928543, -0.343385, 0.175017, -0.928543, -0.327937, 0.206305, -0.928543, -0.309164, 0.235637, -0.928543, -0.287458, 0.262623, -0.928543, -0.262819, 0.287262, -0.928543, -0.235833, 0.308968, -0.928543, -0.2065, 0.327741, -0.928543, -0.175212, 0.34319, -0.928543, -0.14236, 0.355509, -0.928543, -0.107943, 0.364505, -0.928543, -0.0725489, 0.369784, -0.928543, -0.0365677, 0.371544, -0.928543, 0, 0.369784, -0.928543, 0.0363722, 0.364505, -0.928543, 0.0723533, 0.355509, -0.928543, 0.107748, 0.34319, -0.928543, 0.142165, 0.327741, -0.928543, 0.175017, 0.308968, -0.928543, 0.206305, 0.287262, -0.928543, 0.235637, 0.262623, -0.928543, 0.262623, 0.235637, -0.928543, 0.287262, 0.206305, -0.928543, 0.308968, 0.175017, -0.928543, 0.327741, 0.142165, -0.928543, 0.34319, 0.107748, -0.928543, 0.355509, 0.470688, -0.0477684, 0.880755, 0.382104, 0.0475723, 0.922799, 0.466581, -0.142326, 0.872933, 0.37878, 0.14213, 0.91439, 0.37174, 0.235708, 0.897768, 0.361571, 0.326938, 0.872933, 0.457977, -0.235905, 0.856898, 0.445462, -0.327134, 0.833237, 0.348078, 0.415231, 0.840277, 0.331261, 0.5, 0.799993, 0.428645, -0.415427, 0.802144, 0.408112, -0.5, 0.763621, 0.311706, 0.579875, 0.752475, 0.289022, 0.654855, 0.698112, 0.263992, 0.723571, 0.637492, 0.236419, 0.786022, 0.571005, 0.206891, 0.841229, 0.499434, 0.156831, 0.841229, 0.517229, 0.383864, -0.58007, 0.718254, 0.356096, -0.655051, 0.666433, 0.175212, -0.888998, 0.423169, 0.215887, -0.888998, 0.404005, 0.254801, -0.841425, 0.47675, 0.291369, -0.786218, 0.544997, 0.325199, -0.723767, 0.60855, 0.132974, 0.888802, 0.438422, 0.0723533, 0.928347, 0.364505, 0.0723533, 0.928347, -0.3647, 0.132974, 0.888802, -0.438618, 0.156831, 0.841229, -0.517424, 0.37174, 0.235708, -0.897964, 0.37878, 0.14213, -0.914585, 0.361571, 0.326938, -0.873129, 0.382104, 0.0475723, -0.922994, 0.348078, 0.415231, -0.840472, 0.331261, 0.5, -0.800189, 0.311706, 0.579875, -0.75267, 0.263992, 0.723571, -0.637687, 0.289022, 0.654855, -0.698308, 0.236419, 0.786022, -0.5712, 0.206891, 0.841229, -0.499629, 0.355509, 0.928347, 0.107748, 0.364505, 0.928347, 0.0723533, 0.369784, 0.928347, 0.0363722, 0.371544, 0.928347, 0, 0.369784, 0.928347, -0.0365677, 0.364505, 0.928347, -0.0725489, 0.355509, 0.928347, -0.107943, 0.34319, 0.928347, -0.14236, 0.327741, 0.928347, -0.175212, 0.308968, 0.928347, -0.2065, 0.287262, 0.928347, -0.235833, 0.262623, 0.928347, -0.262819, 0.235637, 0.928347, -0.287458, 0.206305, 0.928347, -0.309164, 0.175017, 0.928347, -0.327937, 0.142165, 0.928347, -0.343385, 0.107748, 0.928347, -0.355705, 0.107748, 0.928347, 0.355509, 0.142165, 0.928347, 0.34319, 0.175017, 0.928347, 0.327741, 0.206305, 0.928347, 0.308968, 0.235637, 0.928347, 0.287262, 0.262623, 0.928347, 0.262623, 0.287262, 0.928347, 0.235637, 0.308968, 0.928347, 0.206305, 0.327741, 0.928347, 0.175017, 0.34319, 0.928347, 0.142165, 0.470688, -0.0477684, -0.880951, 0.466581, -0.142326, -0.873129, 0.457977, -0.235905, -0.857094, 0.445462, -0.327134, -0.833432, 0.428645, -0.415427, -0.80234, 0.408112, -0.5, -0.763817, 0.383864, -0.58007, -0.718449, 0.356096, -0.655051, -0.666629, 0.325199, -0.723767, -0.608746, 0.291369, -0.786218, -0.545192, 0.254801, -0.841425, -0.476945, 0.215887, -0.888998, -0.404201, 0.175212, -0.888998, -0.423365, 0.25441, -0.888998, -0.381126, 0.290587, -0.888998, -0.354336, 0.32383, -0.888998, -0.324026, 0.35414, -0.888998, -0.290782, 0.380931, -0.888998, -0.254606, 0.404005, -0.888998, -0.216082, 0.423169, -0.888998, -0.175408, 0.438422, -0.888998, -0.133169, 0.449373, -0.888998, -0.0895617, 0.455826, -0.888998, -0.0449764, 0.458173, -0.888998, 0, 0.455826, -0.888998, 0.0447809, 0.449373, -0.888998, 0.0893661, 0.438422, -0.888998, 0.132974, 0.423169, -0.888998, 0.175212, 0.404005, -0.888998, 0.215887, 0.380931, -0.888998, 0.25441, 0.35414, -0.888998, 0.290587, 0.32383, -0.888998, 0.32383, 0.290587, -0.888998, 0.35414, 0.25441, -0.888998, 0.380931, 0.554774, -0.0477684, 0.830499, 0.470688, 0.0475723, 0.880755, 0.466581, 0.14213, 0.872933, 0.549885, -0.142326, 0.822873, 0.539717, -0.235905, 0.808011, 0.457977, 0.235708, 0.856898, 0.445462, 0.326938, 0.833237, 0.524855, -0.327134, 0.785718, 0.428645, 0.415231, 0.802144, 0.408112, 0.5, 0.763621, 0.5053, -0.415427, 0.75619, 0.481052, -0.5, 0.720014, 0.383864, 0.579875, 0.718254, 0.356096, 0.654855, 0.666433, 0.325199, 0.723571, 0.60855, 0.291369, 0.786022, 0.544997, 0.254801, 0.841229, 0.47675, 0.215887, 0.888802, 0.404005, 0.175212, 0.888802, 0.423169, 0.419845, -0.655051, 0.628301, 0.452502, -0.58007, 0.677188, 0.300169, -0.841425, 0.449373, 0.343385, -0.786218, 0.513904, 0.383277, -0.723767, 0.573743, 0.175212, 0.888802, -0.423365, 0.457977, 0.235708, -0.857094, 0.466581, 0.14213, -0.873129, 0.445462, 0.326938, -0.833432, 0.470688, 0.0475723, -0.880951, 0.428645, 0.415231, -0.80234, 0.408112, 0.5, -0.763817, 0.383864, 0.579875, -0.718449, 0.356096, 0.654855, -0.666629, 0.325199, 0.723571, -0.608746, 0.291369, 0.786022, -0.545192, 0.215887, 0.888802, -0.404201, 0.254801, 0.841229, -0.476945, 0.438422, 0.888802, 0.132974, 0.449373, 0.888802, 0.0893661, 0.455826, 0.888802, 0.0447809, 0.458173, 0.888802, 0, 0.455826, 0.888802, -0.0449764, 0.449373, 0.888802, -0.0895617, 0.438422, 0.888802, -0.133169, 0.423169, 0.888802, -0.175408, 0.404005, 0.888802, -0.216082, 0.380931, 0.888802, -0.254606, 0.35414, 0.888802, -0.290782, 0.32383, 0.888802, -0.324026, 0.290587, 0.888802, -0.354336, 0.25441, 0.888802, -0.381126, 0.25441, 0.888802, 0.380931, 0.290587, 0.888802, 0.35414, 0.32383, 0.888802, 0.32383, 0.35414, 0.888802, 0.290587, 0.380931, 0.888802, 0.25441, 0.404005, 0.888802, 0.215887, 0.423169, 0.888802, 0.175212, 0.554774, -0.0477684, -0.830695, 0.549885, -0.142326, -0.823068, 0.539717, -0.235905, -0.808206, 0.524855, -0.327134, -0.785914, 0.5053, -0.415427, -0.756386, 0.481052, -0.5, -0.720209, 0.452502, -0.58007, -0.677384, 0.419845, -0.655051, -0.628496, 0.383277, -0.723767, -0.573938, 0.343385, -0.786218, -0.5141, 0.300169, -0.841425, -0.449569, 0.342798, -0.841425, -0.418085, 0.382104, -0.841425, -0.382299, 0.41789, -0.841425, -0.342994, 0.449373, -0.841425, -0.300364, 0.47675, -0.841425, -0.254997, 0.499434, -0.841425, -0.207087, 0.517229, -0.841425, -0.157026, 0.530135, -0.841425, -0.105597, 0.537957, -0.841425, -0.052994, 0.540499, -0.841425, 0, 0.537957, -0.841425, 0.0527984, 0.530135, -0.841425, 0.105401, 0.517229, -0.841425, 0.156831, 0.499434, -0.841425, 0.206891, 0.47675, -0.841425, 0.254801, 0.449373, -0.841425, 0.300169, 0.41789, -0.841425, 0.342798, 0.382104, -0.841425, 0.382104, 0.342798, -0.841425, 0.41789, 0.633581, -0.0477684, 0.77203, 0.554774, 0.0475723, 0.830499, 0.62791, -0.142326, 0.76499, 0.549885, 0.14213, 0.822873, 0.539717, 0.235708, 0.808011, 0.616372, -0.235905, 0.751106, 0.524855, 0.326938, 0.785718, 0.59936, -0.327134, 0.730378, 0.5053, 0.415231, 0.75619, 0.481052, 0.5, 0.720014, 0.576871, -0.415427, 0.703001, 0.549299, -0.5, 0.669366, 0.516642, -0.58007, 0.62967, 0.452502, 0.579875, 0.677188, 0.419845, 0.654855, 0.628301, 0.383277, 0.723571, 0.573743, 0.343385, 0.786022, 0.513904, 0.300169, 0.841229, 0.449373, 0.479292, -0.655051, 0.584107, 0.392077, -0.786218, 0.477728, 0.43764, -0.723767, 0.533264, 0.539717, 0.235708, -0.808206, 0.549885, 0.14213, -0.823068, 0.554774, 0.0475723, -0.830695, 0.524855, 0.326938, -0.785914, 0.5053, 0.415231, -0.756386, 0.481052, 0.5, -0.720209, 0.452502, 0.579875, -0.677384, 0.419845, 0.654855, -0.628496, 0.383277, 0.723571, -0.573938, 0.343385, 0.786022, -0.5141, 0.300169, 0.841229, -0.449569, 0.499434, 0.841229, 0.206891, 0.517229, 0.841229, 0.156831, 0.530135, 0.841229, 0.105401, 0.537957, 0.841229, 0.0527984, 0.540499, 0.841229, 0, 0.537957, 0.841229, -0.052994, 0.530135, 0.841229, -0.105597, 0.517229, 0.841229, -0.157026, 0.499434, 0.841229, -0.207087, 0.47675, 0.841229, -0.254997, 0.449373, 0.841229, -0.300364, 0.41789, 0.841229, -0.342994, 0.382104, 0.841229, -0.382299, 0.342798, 0.841229, -0.418085, 0.342798, 0.841229, 0.41789, 0.382104, 0.841229, 0.382104, 0.41789, 0.841229, 0.342798, 0.449373, 0.841229, 0.300169, 0.47675, 0.841229, 0.254801, 0.633581, -0.0477684, -0.772225, 0.62791, -0.142326, -0.765186, 0.616372, -0.235905, -0.751302, 0.59936, -0.327134, -0.730573, 0.576871, -0.415427, -0.703196, 0.549299, -0.5, -0.669562, 0.516642, -0.58007, -0.629865, 0.479292, -0.655051, -0.584302, 0.43764, -0.723767, -0.533459, 0.392077, -0.786218, -0.477923, 0.437053, -0.786218, -0.437249, 0.477728, -0.786218, -0.392272, 0.513904, -0.786218, -0.343581, 0.544997, -0.786218, -0.291564, 0.571005, -0.786218, -0.236615, 0.591538, -0.786218, -0.179515, 0.606204, -0.786218, -0.120654, 0.615004, -0.786218, -0.0606204, 0.618132, -0.786218, 0, 0.615004, -0.786218, 0.0604249, 0.606204, -0.786218, 0.120459, 0.591538, -0.786218, 0.179319, 0.571005, -0.786218, 0.236419, 0.544997, -0.786218, 0.291369, 0.513904, -0.786218, 0.343385, 0.477728, -0.786218, 0.392077, 0.437053, -0.786218, 0.437053, 0.70613, -0.0477684, 0.70613, 0.633581, 0.0475723, 0.77203, 0.699872, -0.142326, 0.699872, 0.62791, 0.14213, 0.76499, 0.687161, -0.235905, 0.687161, 0.616372, 0.235708, 0.751106, 0.59936, 0.326938, 0.730378, 0.668193, -0.327134, 0.668193, 0.643163, -0.415427, 0.643163, 0.576871, 0.415231, 0.703001, 0.549299, 0.5, 0.669366, 0.516642, 0.579875, 0.62967, 0.612266, -0.5, 0.612266, 0.534241, -0.655051, 0.534241, 0.575894, -0.58007, 0.575894, 0.479292, 0.654855, 0.584107, 0.43764, 0.723571, 0.533264, 0.392077, 0.786022, 0.477728, 0.487896, -0.723767, 0.487896, 0.616372, 0.235708, -0.751302, 0.62791, 0.14213, -0.765186, 0.633581, 0.0475723, -0.772225, 0.59936, 0.326938, -0.730573, 0.576871, 0.415231, -0.703196, 0.549299, 0.5, -0.669562, 0.516642, 0.579875, -0.629865, 0.479292, 0.654855, -0.584302, 0.43764, 0.723571, -0.533459, 0.392077, 0.786022, -0.477923, 0.544997, 0.786022, 0.291369, 0.571005, 0.786022, 0.236419, 0.591538, 0.786022, 0.179319, 0.606204, 0.786022, 0.120459, 0.615004, 0.786022, 0.0604249, 0.618132, 0.786022, 0, 0.615004, 0.786022, -0.0606204, 0.606204, 0.786022, -0.120654, 0.591538, 0.786022, -0.179515, 0.571005, 0.786022, -0.236615, 0.544997, 0.786022, -0.291564, 0.513904, 0.786022, -0.343581, 0.477728, 0.786022, -0.392272, 0.437053, 0.786022, -0.437249, 0.437053, 0.786022, 0.437053, 0.477728, 0.786022, 0.392077, 0.513904, 0.786022, 0.343385, 0.70613, -0.0477684, -0.706325, 0.699872, -0.142326, -0.700068, 0.687161, -0.235905, -0.687357, 0.668193, -0.327134, -0.668388, 0.643163, -0.415427, -0.643358, 0.612266, -0.5, -0.612461, 0.575894, -0.58007, -0.576089, 0.534241, -0.655051, -0.534437, 0.487896, -0.723767, -0.488092, 0.533264, -0.723767, -0.437836, 0.573743, -0.723767, -0.383473, 0.60855, -0.723767, -0.325395, 0.637492, -0.723767, -0.264188, 0.660176, -0.723767, -0.200438, 0.676797, -0.723767, -0.134734, 0.686575, -0.723767, -0.0676602, 0.689899, -0.723767, 0, 0.686575, -0.723767, 0.0674646, 0.676797, -0.723767, 0.134538, 0.660176, -0.723767, 0.200243, 0.637492, -0.723767, 0.263992, 0.60855, -0.723767, 0.325199, 0.573743, -0.723767, 0.383277, 0.533264, -0.723767, 0.43764, 0.77203, -0.0477684, 0.633581, 0.70613, 0.0475723, 0.70613, 0.699872, 0.14213, 0.699872, 0.76499, -0.142326, 0.62791, 0.687161, 0.235708, 0.687161, 0.751106, -0.235905, 0.616372, 0.730378, -0.327134, 0.59936, 0.668193, 0.326938, 0.668193, 0.643163, 0.415231, 0.643163, 0.703001, -0.415427, 0.576871, 0.669366, -0.5, 0.549299, 0.612266, 0.5, 0.612266, 0.575894, 0.579875, 0.575894, 0.534241, 0.654855, 0.534241, 0.62967, -0.58007, 0.516642, 0.584107, -0.655051, 0.479292, 0.487896, 0.723571, 0.487896, 0.687161, 0.235708, -0.687357, 0.699872, 0.14213, -0.700068, 0.70613, 0.0475723, -0.706325, 0.668193, 0.326938, -0.668388, 0.643163, 0.415231, -0.643358, 0.612266, 0.5, -0.612461, 0.575894, 0.579875, -0.576089, 0.534241, 0.654855, -0.534437, 0.487896, 0.723571, -0.488092, 0.60855, 0.723571, 0.325199, 0.637492, 0.723571, 0.263992, 0.660176, 0.723571, 0.200243, 0.676797, 0.723571, 0.134538, 0.686575, 0.723571, 0.0674646, 0.689899, 0.723571, 0, 0.686575, 0.723571, -0.0676602, 0.676797, 0.723571, -0.134734, 0.660176, 0.723571, -0.200438, 0.637492, 0.723571, -0.264188, 0.60855, 0.723571, -0.325395, 0.573743, 0.723571, -0.383473, 0.533264, 0.723571, -0.437836, 0.533264, 0.723571, 0.43764, 0.573743, 0.723571, 0.383277, 0.77203, -0.0477684, -0.633776, 0.76499, -0.142326, -0.628105, 0.751106, -0.235905, -0.616568, 0.730378, -0.327134, -0.599555, 0.703001, -0.415427, -0.577067, 0.669366, -0.5, -0.549494, 0.62967, -0.58007, -0.516838, 0.584107, -0.655051, -0.479488, 0.628301, -0.655051, -0.420041, 0.666433, -0.655051, -0.356291, 0.698112, -0.655051, -0.289218, 0.723142, -0.655051, -0.219407, 0.741133, -0.655051, -0.147444, 0.752084, -0.655051, -0.0741133, 0.755604, -0.655051, 0, 0.752084, -0.655051, 0.0739178, 0.741133, -0.655051, 0.147249, 0.723142, -0.655051, 0.219211, 0.698112, -0.655051, 0.289022, 0.666433, -0.655051, 0.356096, 0.628301, -0.655051, 0.419845, 0.830499, -0.0477684, 0.554774, 0.77203, 0.0475723, 0.633581, 0.76499, 0.14213, 0.62791, 0.822873, -0.142326, 0.549885, 0.808011, -0.235905, 0.539717, 0.751106, 0.235708, 0.616372, 0.730378, 0.326938, 0.59936, 0.785718, -0.327134, 0.524855, 0.75619, -0.415427, 0.5053, 0.703001, 0.415231, 0.576871, 0.669366, 0.5, 0.549299, 0.720014, -0.5, 0.481052, 0.62967, 0.579875, 0.516642, 0.584107, 0.654855, 0.479292, 0.677188, -0.58007, 0.452502, 0.751106, 0.235708, -0.616568, 0.76499, 0.14213, -0.628105, 0.730378, 0.326938, -0.599555, 0.77203, 0.0475723, -0.633776, 0.703001, 0.415231, -0.577067, 0.669366, 0.5, -0.549494, 0.62967, 0.579875, -0.516838, 0.584107, 0.654855, -0.479488, 0.628301, 0.654855, 0.419845, 0.666433, 0.654855, 0.356096, 0.698112, 0.654855, 0.289022, 0.723142, 0.654855, 0.219211, 0.741133, 0.654855, 0.147249, 0.752084, 0.654855, 0.0739178, 0.755604, 0.654855, 0, 0.752084, 0.654855, -0.0741133, 0.741133, 0.654855, -0.147444, 0.723142, 0.654855, -0.219407, 0.698112, 0.654855, -0.289218, 0.666433, 0.654855, -0.356291, 0.628301, 0.654855, -0.420041, 0.830499, -0.0477684, -0.55497, 0.822873, -0.142326, -0.550081, 0.808011, -0.235905, -0.539912, 0.785718, -0.327134, -0.525051, 0.75619, -0.415427, -0.505496, 0.720014, -0.5, -0.481248, 0.677188, -0.58007, -0.452697, 0.718254, -0.58007, -0.384059, 0.752475, -0.58007, -0.311902, 0.779461, -0.58007, -0.236615, 0.79882, -0.58007, -0.158982, 0.810553, -0.58007, -0.0799798, 0.814464, -0.58007, 0, 0.810553, -0.58007, 0.0797842, 0.79882, -0.58007, 0.158786, 0.779461, -0.58007, 0.236419, 0.752475, -0.58007, 0.311706, 0.718254, -0.58007, 0.383864, 0.880755, -0.0477684, 0.470688, 0.830499, 0.0475723, 0.554774, 0.872933, -0.142326, 0.466581, 0.822873, 0.14213, 0.549885, 0.808011, 0.235708, 0.539717, 0.856898, -0.235905, 0.457977, 0.833237, -0.327134, 0.445462, 0.785718, 0.326938, 0.524855, 0.75619, 0.415231, 0.5053, 0.802144, -0.415427, 0.428645, 0.720014, 0.5, 0.481052, 0.763621, -0.5, 0.408112, 0.677188, 0.579875, 0.452502, 0.808011, 0.235708, -0.539912, 0.785718, 0.326938, -0.525051, 0.822873, 0.14213, -0.550081, 0.830499, 0.0475723, -0.55497, 0.75619, 0.415231, -0.505496, 0.720014, 0.5, -0.481248, 0.677188, 0.579875, -0.452697, 0.718254, 0.579875, 0.383864, 0.752475, 0.579875, 0.311706, 0.779461, 0.579875, 0.236419, 0.79882, 0.579875, 0.158786, 0.810553, 0.579875, 0.0797842, 0.814464, 0.579875, 0, 0.810553, 0.579875, -0.0799798, 0.79882, 0.579875, -0.158982, 0.779461, 0.579875, -0.236615, 0.752475, 0.579875, -0.311902, 0.718254, 0.579875, -0.384059, 0.880755, -0.0477684, -0.470883, 0.872933, -0.142326, -0.466777, 0.856898, -0.235905, -0.458173, 0.833237, -0.327134, -0.445658, 0.802144, -0.415427, -0.42884, 0.763621, -0.5, -0.408308, 0.799993, -0.5, -0.331457, 0.828544, -0.5, -0.251477, 0.849272, -0.5, -0.168955, 0.861787, -0.5, -0.0850641, 0.865894, -0.5, 0, 0.861787, -0.5, 0.0848685, 0.849272, -0.5, 0.168759, 0.828544, -0.5, 0.251281, 0.799993, -0.5, 0.331261, 0.922799, -0.0477684, 0.382104, 0.880755, 0.0475723, 0.470688, 0.872933, 0.14213, 0.466581, 0.91439, -0.142326, 0.37878, 0.897768, -0.235905, 0.37174, 0.856898, 0.235708, 0.457977, 0.833237, 0.326938, 0.445462, 0.840277, -0.415427, 0.348078, 0.872933, -0.327134, 0.361571, 0.802144, 0.415231, 0.428645, 0.763621, 0.5, 0.408112, 0.856898, 0.235708, -0.458173, 0.872933, 0.14213, -0.466777, 0.833237, 0.326938, -0.445658, 0.802144, 0.415231, -0.42884, 0.880755, 0.0475723, -0.470883, 0.763621, 0.5, -0.408308, 0.799993, 0.5, 0.331261, 0.828544, 0.5, 0.251281, 0.849272, 0.5, 0.168759, 0.861787, 0.5, 0.0848685, 0.865894, 0.5, 0, 0.861787, 0.5, -0.0850641, 0.849272, 0.5, -0.168955, 0.828544, 0.5, -0.251477, 0.799993, 0.5, -0.331457, 0.922799, -0.0477684, -0.382299, 0.91439, -0.142326, -0.378975, 0.897768, -0.235905, -0.371935, 0.872933, -0.327134, -0.361767, 0.840277, -0.415427, -0.348274, 0.870391, -0.415427, -0.264188, 0.892097, -0.415427, -0.177559, 0.905199, -0.415427, -0.0891706, 0.909501, -0.415427, 0, 0.905199, -0.415427, 0.0889751, 0.892097, -0.415427, 0.177363, 0.870391, -0.415427, 0.263992, 0.955846, -0.0477684, 0.289805, 0.922799, 0.0475723, 0.382104, 0.91439, 0.14213, 0.37878, 0.897768, 0.235708, 0.37174, 0.947047, -0.142326, 0.287262, 0.929838, -0.235905, 0.281982, 0.904221, -0.327134, 0.274161, 0.872933, 0.326938, 0.361571, 0.840277, 0.415231, 0.348078, 0.897768, 0.235708, -0.371935, 0.91439, 0.14213, -0.378975, 0.922799, 0.0475723, -0.382299, 0.872933, 0.326938, -0.361767, 0.840277, 0.415231, -0.348274, 0.870391, 0.415231, 0.263992, 0.892097, 0.415231, 0.177363, 0.905199, 0.415231, 0.0889751, 0.909501, 0.415231, 0, 0.905199, 0.415231, -0.0891706, 0.892097, 0.415231, -0.177559, 0.870391, 0.415231, -0.264188, 0.955846, -0.0477684, -0.29, 0.947047, -0.142326, -0.287458, 0.929838, -0.235905, -0.282178, 0.904221, -0.327134, -0.274356, 0.92671, -0.327134, -0.184403, 0.940398, -0.327134, -0.0926905, 0.944896, -0.327134, 0, 0.940398, -0.327134, 0.092495, 0.92671, -0.327134, 0.184208, 0.970708, -0.142326, 0.193007, 0.979508, -0.0477684, 0.194767, 0.955846, 0.0475723, 0.289805, 0.947047, 0.14213, 0.287262, 0.929838, 0.235708, 0.281982, 0.904221, 0.326938, 0.274161, 0.953109, -0.235905, 0.189488, 0.929838, 0.235708, -0.282178, 0.904221, 0.326938, -0.274356, 0.947047, 0.14213, -0.287458, 0.955846, 0.0475723, -0.29, 0.92671, 0.326938, 0.184208, 0.940398, 0.326938, 0.092495, 0.944896, 0.326938, 0, 0.940398, 0.326938, -0.0926905, 0.92671, 0.326938, -0.184403, 0.979508, -0.0477684, -0.194963, 0.970708, -0.142326, -0.193203, 0.953109, -0.235905, -0.189683, 0.966993, -0.235905, -0.0954282, 0.971686, -0.235905, 0, 0.966993, -0.235905, 0.0952327, 0.984983, -0.142326, 0.0969926, 0.993979, -0.0477684, 0.0977748, 0.979508, 0.0475723, 0.194767, 0.970708, 0.14213, 0.193007, 0.953109, 0.235708, 0.189488, 0.953109, 0.235708, -0.189683, 0.970708, 0.14213, -0.193203, 0.979508, 0.0475723, -0.194963, 0.966993, 0.235708, 0.0952327, 0.971686, 0.235708, 0, 0.966993, 0.235708, -0.0954282, 0.993979, -0.0477684, -0.0979704, 0.984983, -0.142326, -0.0971881, 0.989677, -0.142326, 0, 0.998867, -0.0477684, 0, 0.993979, 0.0475723, 0.0977748, 0.984983, 0.14213, 0.0969926, 0.984983, 0.14213, -0.0971881, 0.993979, 0.0475723, -0.0979704, 0.989677, 0.14213, 0, 0.998867, 0.0475723, 0 )

[node name="Anticorps" type="RigidBody" groups=["Anticorps"]]
physics_material_override = SubResource( 4 )
gravity_scale = 0.0
continuous_cd = true
contacts_reported = 5
contact_monitor = true
script = ExtResource( 1 )

[node name="MeshInstance" type="MeshInstance" parent="."]
mesh = SubResource( 1 )
material/0 = SubResource( 2 )

[node name="CollisionShape" type="CollisionShape" parent="."]
shape = SubResource( 3 )

[connection signal="body_entered" from="." to="." method="_on_Anticorps_body_entered"]
