[gd_scene load_steps=4 format=2]

[ext_resource path="res://assets/sprites/ship.png" type="Texture" id=1]
[ext_resource path="res://ship/Ship.vs" type="Script" id=2]

[sub_resource type="CapsuleShape2D" id=1]
radius = 19.3008
height = 64.7765

[node name="Ship" type="KinematicBody2D"]
script = ExtResource( 2 )

[node name="Sprite" type="Sprite" parent="."]
rotation = -3.14159
texture = ExtResource( 1 )

[node name="CollisionShape2D" type="CollisionShape2D" parent="."]
shape = SubResource( 1 )
